…
    ## Warning: Trying to compute distinct() for variables not found in the data:
    ## - `row_col`, `column_col`
    ## This is an error, but only a warning is raised for compatibility reasons.
    ## The operation will return the input unchanged.

``` r
edges
```

    ## # A tibble: 200 x 3
    ##    item1      item2   correlation
    ##    <fct>      <fct>         <dbl>
    ##  1 Ghana      Algeria       0.999
    ##  2 Honduras   Algeria       0.999
    ##  3 Oman       Algeria       0.999
    ##  4 Peru       Algeria       0.999
    ##  5 Syria      Algeria       0.998
    ##  6 Tunisia    Algeria       0.999
    ##  7 Costa Rica Bahrain       0.999
    ##  8 Djibouti   Bahrain       0.999
    ##  9 India      Bahrain       0.999
    ## 10 Reunion    Bahrain       0.999
    ## # ... with 190 more rows

``` r
nodes <- gapminder %>%
  select(country, continent) %>%
  distinct()
```

``` r
nodes
```

    ## # A tibble: 142 x 2
    ##    country     continent
    ##    <fct>       <fct>    
    ##  1 Afghanistan Asia     
    ##  2 Albania     Europe   
    ##  3 Algeria     Africa   
    ##  4 Angola      Africa   
    ##  5 Argentina   Americas 
    ##  6 Australia   Oceania  
    ##  7 Austria     Europe   
    ##  8 Bahrain     Asia     
    ##  9 Bangladesh  Asia     
    ## 10 Belgium     Europe   
    ## # ... with 132 more rows
…
